script START
Conda Environment Activated
Using device: cuda

NVIDIA GeForce GTX 1080 Ti
Memory Usage:
Allocated: 0.0 GB
Cached:    0.0 GB
start py
loading hdf files
create numpy object
start trainig
dataset length: 65536
EPOCH 1:
  batch 1000 loss: 0.11766970076039433
  batch 2000 loss: 0.08600113092362881
  batch 3000 loss: 0.08020234417915344
  batch 4000 loss: 0.07818299548933283
LOSS train 0.07818299548933283
EPOCH 2:
  batch 1000 loss: 0.07326095503056422
  batch 2000 loss: 0.0719894884871319
  batch 3000 loss: 0.07291711133858189
  batch 4000 loss: 0.07070892159827054
LOSS train 0.07070892159827054
EPOCH 3:
  batch 1000 loss: 0.06879581120423972
  batch 2000 loss: 0.06976725460169837
  batch 3000 loss: 0.06759264056500978
  batch 4000 loss: 0.06596964830858633
LOSS train 0.06596964830858633
EPOCH 4:
  batch 1000 loss: 0.06358040270302445
  batch 2000 loss: 0.06310728174308315
  batch 3000 loss: 0.06267965760175138
  batch 4000 loss: 0.06317326768580823
LOSS train 0.06317326768580823
EPOCH 5:
  batch 1000 loss: 0.06320988222770393
  batch 2000 loss: 0.06180924208741635
  batch 3000 loss: 0.06105352295888588
  batch 4000 loss: 0.060146269786171616
LOSS train 0.060146269786171616
EPOCH 6:
  batch 1000 loss: 0.059519044873304665
  batch 2000 loss: 0.0584515657783486
  batch 3000 loss: 0.060028031293768436
  batch 4000 loss: 0.06040578129095957
LOSS train 0.06040578129095957
EPOCH 7:
  batch 1000 loss: 0.05791493986500427
  batch 2000 loss: 0.05910163094522432
  batch 3000 loss: 0.05906100683938712
  batch 4000 loss: 0.05726341422833502
LOSS train 0.05726341422833502
EPOCH 8:
  batch 1000 loss: 0.057920183571986854
  batch 2000 loss: 0.057315410277340564
  batch 3000 loss: 0.05690196714922786
  batch 4000 loss: 0.05574106415035203
LOSS train 0.05574106415035203
EPOCH 9:
  batch 1000 loss: 0.05538624490518123
  batch 2000 loss: 0.05636084599746391
  batch 3000 loss: 0.055515457286732274
  batch 4000 loss: 0.05575602053455077
LOSS train 0.05575602053455077
EPOCH 10:
  batch 1000 loss: 0.055324403944192455
  batch 2000 loss: 0.05479964509117417
  batch 3000 loss: 0.05369050388480537
  batch 4000 loss: 0.054080934495897966
LOSS train 0.054080934495897966
EPOCH 11:
  batch 1000 loss: 0.05373381114122458
  batch 2000 loss: 0.05277939345804043
  batch 3000 loss: 0.05377646303200163
  batch 4000 loss: 0.05254272119398229
LOSS train 0.05254272119398229
EPOCH 12:
  batch 1000 loss: 0.05204907741677016
  batch 2000 loss: 0.054033552711829545
  batch 3000 loss: 0.053284480022732165
  batch 4000 loss: 0.051666980770649386
LOSS train 0.051666980770649386
EPOCH 13:
  batch 1000 loss: 0.052124320776900275
  batch 2000 loss: 0.05304622520878911
  batch 3000 loss: 0.051311474142596125
  batch 4000 loss: 0.05150691612041555
LOSS train 0.05150691612041555
EPOCH 14:
  batch 1000 loss: 0.050868327708914876
  batch 2000 loss: 0.05221734361443669
  batch 3000 loss: 0.052212806698400525
  batch 4000 loss: 0.05217739573703147
LOSS train 0.05217739573703147
EPOCH 15:
  batch 1000 loss: 0.05200014367303811
  batch 2000 loss: 0.051454419603338464
  batch 3000 loss: 0.051923532398184764
  batch 4000 loss: 0.05161553562642075
LOSS train 0.05161553562642075
EPOCH 16:
  batch 1000 loss: 0.05024404503032565
  batch 2000 loss: 0.04917134833149612
  batch 3000 loss: 0.050780829476425426
  batch 4000 loss: 0.052745225235121325
LOSS train 0.052745225235121325
EPOCH 17:
  batch 1000 loss: 0.05059215314732864
  batch 2000 loss: 0.051566719786031175
  batch 3000 loss: 0.050840711784549054
  batch 4000 loss: 0.04847820992139168
LOSS train 0.04847820992139168
EPOCH 18:
  batch 1000 loss: 0.05026988480100408
  batch 2000 loss: 0.051151060505770146
  batch 3000 loss: 0.04966079572075978
  batch 4000 loss: 0.04917724192608148
LOSS train 0.04917724192608148
EPOCH 19:
  batch 1000 loss: 0.04969189062318764
  batch 2000 loss: 0.049267600631807
  batch 3000 loss: 0.04947965811798349
  batch 4000 loss: 0.04931268739653751
LOSS train 0.04931268739653751
EPOCH 20:
  batch 1000 loss: 0.04757118048495613
  batch 2000 loss: 0.049131685688160356
  batch 3000 loss: 0.04977838001749478
  batch 4000 loss: 0.049646965153282506
LOSS train 0.049646965153282506
Elapsed Time: 242 seconds
script END
